{"count":226,"next":"http://showtimes.everyday.in.th/api/v2/theater/?limit=15&offset=15","previous":null,"results":[{"url":"http://showtimes.everyday.in.th/api/v2/theater/10/","group":{"code":"sf","english":"SF","thai":"เอสเอฟ","website":"http://sfcinemacity.com/"},"showtimes":"http://showtimes.everyday.in.th/api/v2/theater/10/showtimes/","num_views":85093,"today_screens":10,"min_screens":3,"fav":false,"stars":3,"id":10,"code":"9901","slug":"sf-cinema-city-mbk-center","english":"SF Cinema City MBK Center","thai":"เอส เอฟ ซีเนม่า เอ็มบีเค เซ็นเตอร์","website":"","location":"7-8th FL. MBK Center","point":"SRID=4326;POINT (100.53 13.7447)","tel":"0-2268-8888"},{"url":"http://showtimes.everyday.in.th/api/v2/theater/8/","group":{"code":"sf","english":"SF","thai":"เอสเอฟ","website":"http://sfcinemacity.com/"},"showtimes":"http://showtimes.everyday.in.th/api/v2/theater/8/showtimes/","num_views":69303,"today_screens":16,"min_screens":3,"fav":false,"stars":0,"id":8,"code":"9902","slug":"sf-cinema-city-the-mall-bangkapi","english":"SF Cinema City The Mall Bangkapi","thai":"เอส เอฟ ซีเนม่า เดอะมอลล์ บางกะปิ","website":"","location":"4th FL. The Mall Bangkapi","point":"SRID=4326;POINT (100.6425 13.7659)","tel":"0-2268-8888"},{"url":"http://showtimes.everyday.in.th/api/v2/theater/11/","group":{"code":"sf","english":"SF","thai":"เอสเอฟ","website":"http://sfcinemacity.com/"},"showtimes":"http://showtimes.everyday.in.th/api/v2/theater/11/showtimes/","num_views":40598,"today_screens":13,"min_screens":5,"fav":false,"stars":1,"id":11,"code":"9903","slug":"sf-cinema-city-the-mall-ngamwongwan","english":"SF Cinema City The Mall Ngamwongwan","thai":"เอส เอฟ ซีเนม่า เดอะมอลล์ งามวงศ์วาน","website":"","location":"6th FL. The Mall Ngamwongwan","point":"SRID=4326;POINT (100.542 13.8554)","tel":"0-2268-8888"},{"url":"http://showtimes.everyday.in.th/api/v2/theater/7/","group":{"code":"sf","english":"SF","thai":"เอสเอฟ","website":"http://sfcinemacity.com/"},"showtimes":"http://showtimes.everyday.in.th/api/v2/theater/7/showtimes/","num_views":38745,"today_screens":12,"min_screens":3,"fav":false,"stars":0,"id":7,"code":"9904","slug":"sf-cinema-city-the-mall-bangkae","english":"SF Cinema City The Mall Bangkae","thai":"เอส เอฟ ซีเนม่า เดอะมอลล์ บางแค","website":"","location":"4th FL. The Mall Bangkae","point":"SRID=4326;POINT (100.408 13.7126)","tel":"0-2268-8888"},{"url":"http://showtimes.everyday.in.th/api/v2/theater/139/","group":{"code":"sf","english":"SF","thai":"เอสเอฟ","website":"http://sfcinemacity.com/"},"showtimes":"http://showtimes.everyday.in.th/api/v2/theater/139/showtimes/","num_views":84863,"today_screens":6,"min_screens":3,"fav":false,"stars":0,"id":139,"code":"9905","slug":"emprive-cineclub","english":"Emprive Cineclub","thai":"เอ็มพรีเว่ ซีเนคลับ เอ็มโพเรียม","website":"http://www.emprivecineclub.com/","location":"5th Fl. Emporium","point":"SRID=4326;POINT (100.569 13.7301)","tel":"02-268-8899"},{"url":"http://showtimes.everyday.in.th/api/v2/theater/2/","group":{"code":"sf","english":"SF","thai":"เอสเอฟ","website":"http://sfcinemacity.com/"},"showtimes":"http://showtimes.everyday.in.th/api/v2/theater/2/showtimes/","num_views":47600,"today_screens":15,"min_screens":3,"fav":false,"stars":3,"id":2,"code":"9906","slug":"sfx-cinema-central-ladprao","english":"SFX Cinema Central Ladprao","thai":"เอส เอฟ เอ็กซ์ ซีเนม่า เซ็นทรัล พลาซา ลาดพร้าว ","website":"","location":"6th FL. Central Ladprao","point":"SRID=4326;POINT (100.5609 13.8169)","tel":"0-2268-8888"},{"url":"http://showtimes.everyday.in.th/api/v2/theater/3/","group":{"code":"sf","english":"SF","thai":"เอสเอฟ","website":"http://sfcinemacity.com/"},"showtimes":"http://showtimes.everyday.in.th/api/v2/theater/3/showtimes/","num_views":60639,"today_screens":11,"min_screens":3,"fav":false,"stars":0,"id":3,"code":"9907","slug":"sfx-cinema-central-phuket","english":"SFX Cinema Central Phuket","thai":"เอส เอฟ เอ็กซ์ ซีเนม่า เซ็นทรัลเฟสติวัล ภูเก็ต","website":"","location":"3rd FL. Central Phuket","point":"SRID=4326;POINT (98.3682 7.8919)","tel":"076-209-000"},{"url":"http://showtimes.everyday.in.th/api/v2/theater/13/","group":{"code":"sf","english":"SF","thai":"เอสเอฟ","website":"http://sfcinemacity.com/"},"showtimes":"http://showtimes.everyday.in.th/api/v2/theater/13/showtimes/","num_views":13840,"today_screens":11,"min_screens":3,"fav":false,"stars":0,"id":13,"code":"9908","slug":"sf-cinema-city-central-rattanatibeth","english":"SF Cinema City Central Rattanatibeth","thai":"เอส เอฟ ซีเนม่า เซ็นทรัล พลาซา รัตนาธิเบศร์","website":"","location":"3rd FL. Central Rattanatibeth","point":"SRID=4326;POINT (100.497 13.8666)","tel":"0-2268-8888"},{"url":"http://showtimes.everyday.in.th/api/v2/theater/121/","group":{"code":"sf","english":"SF","thai":"เอสเอฟ","website":"http://sfcinemacity.com/"},"showtimes":"http://showtimes.everyday.in.th/api/v2/theater/121/showtimes/","num_views":151242,"today_screens":18,"min_screens":3,"fav":false,"stars":5,"id":121,"code":"9909","slug":"sf-world-cinema-central-world","english":"SF World Cinema Central World","thai":"เอส เอฟ เวิลด์ ซีเนม่า เซ็นทรัลเวิลด์","website":"","location":"7th FL. CentralWorld","point":"SRID=4326;POINT (100.538 13.7462)","tel":"0-2268-8888"},{"url":"http://showtimes.everyday.in.th/api/v2/theater/28/","group":{"code":"sf","english":"SF","thai":"เอสเอฟ","website":"http://sfcinemacity.com/"},"showtimes":"http://showtimes.everyday.in.th/api/v2/theater/28/showtimes/","num_views":5963,"today_screens":7,"min_screens":3,"fav":false,"stars":0,"id":28,"code":"9910","slug":"sf-cinema-city-central-pattaya","english":"SF Cinema City Central Pattaya","thai":"เอส เอฟ ซีเนม่า เซ็นทรัลมารีนา พัทยา","website":"","location":"3rd FL. CentralMarina Pattaya","point":"SRID=4326;POINT (100.89 12.9457)","tel":"038-488-700"},{"url":"http://showtimes.everyday.in.th/api/v2/theater/12/","group":{"code":"sf","english":"SF","thai":"เอสเอฟ","website":"http://sfcinemacity.com/"},"showtimes":"http://showtimes.everyday.in.th/api/v2/theater/12/showtimes/","num_views":28205,"today_screens":10,"min_screens":3,"fav":false,"stars":0,"id":12,"code":"9911","slug":"sf-cinema-city-central-ramintra","english":"SF Cinema City Central Ramintra","thai":"เอส เอฟ ซีเนม่า เซ็นทรัล พลาซา รามอินทรา","website":"","location":"4th FL. Central Ramintra","point":"SRID=4326;POINT (100.622 13.863)","tel":"0-2268-8888"},{"url":"http://showtimes.everyday.in.th/api/v2/theater/16/","group":{"code":"sf","english":"SF","thai":"เอสเอฟ","website":"http://sfcinemacity.com/"},"showtimes":"http://showtimes.everyday.in.th/api/v2/theater/16/showtimes/","num_views":71005,"today_screens":12,"min_screens":3,"fav":false,"stars":1,"id":16,"code":"9912","slug":"sf-cinema-city-the-mall-thapra","english":"SF Cinema City The Mall Thapra","thai":"เอส เอฟ ซีเนม่า เดอะมอลล์ ท่าพระ","website":"","location":"5th FL. The Mall Thapra","point":"SRID=4326;POINT (100.48 13.7136)","tel":"0-2268-8888"},{"url":"http://showtimes.everyday.in.th/api/v2/theater/21/","group":{"code":"sf","english":"SF","thai":"เอสเอฟ","website":"http://sfcinemacity.com/"},"showtimes":"http://showtimes.everyday.in.th/api/v2/theater/21/showtimes/","num_views":18845,"today_screens":6,"min_screens":3,"fav":false,"stars":0,"id":21,"code":"9913","slug":"sf-cinema-city-jungceylon-patong","english":"SF Cinema City Jungceylon Patong","thai":"เอส เอฟ ซีเนม่า จังซีลอน ป่าตอง","website":"http://www.jungceylon.com/","location":"3rd FL. Jungceylon Patong","point":"SRID=4326;POINT (98.2998 7.8914)","tel":"076-600-555"},{"url":"http://showtimes.everyday.in.th/api/v2/theater/5/","group":{"code":"sf","english":"SF","thai":"เอสเอฟ","website":"http://sfcinemacity.com/"},"showtimes":"http://showtimes.everyday.in.th/api/v2/theater/5/showtimes/","num_views":111036,"today_screens":13,"min_screens":3,"fav":false,"stars":2,"id":5,"code":"9914","slug":"sfx-cinema-central-pattaya-beach","english":"SFX Cinema Central Pattaya Beach","thai":"เอส เอฟ เอ็กซ์ ซีเนม่า เซ็นทรัลเฟสติวัล พัทยาบีช","website":"","location":"6th FL. Central Pattaya Beach","point":"SRID=4326;POINT (100.8841 12.9341)","tel":"033-003-555"},{"url":"http://showtimes.everyday.in.th/api/v2/theater/1/","group":{"code":"sf","english":"SF","thai":"เอสเอฟ","website":"http://sfcinemacity.com/"},"showtimes":"http://showtimes.everyday.in.th/api/v2/theater/1/showtimes/","num_views":48837,"today_screens":12,"min_screens":3,"fav":false,"stars":0,"id":1,"code":"9915","slug":"sfx-cinema-central-chaengwattana","english":"SFX Cinema Central Chaengwattana","thai":"เอส เอฟ เอ็กซ์ ซีเนม่า เซ็นทรัล พลาซา แจ้งวัฒนะ","website":"","location":"7th FL. Central Chaengwattana","point":"SRID=4326;POINT (100.5281 13.9036)","tel":"0-2268-8888"}]}